Lab 01: Happy Little Clouds Example
…
## Warning: package 'purrr' was built under R version 3.5.2

## Warning: package 'dplyr' was built under R version 3.5.2

## Warning: package 'stringr' was built under R version 3.5.2

This dataset contains information about 403 paintings from Bob Ross’s television series painted over 31 seasons.

Let’s see how many episodes there were in each season.

bob_ross %>%
  count(season)

## # A tibble: 31 x 2
##    season     n
##     <dbl> <int>
##  1      1    13
##  2      2    13
##  3      3    13
##  4      4    13
##  5      5    13
##  6      6    13
##  7      7    13
##  8      8    13
##  9      9    13
## 10     10    13
## # … with 21 more rows
…
cloud: whether the painting contained a happy little cloud

ocean: whether the painting was of the ocean

season: the season the painting was created.

Analysis

Let’s sum up the number of cloud paintings in each season.

bob_ross %>%
  group_by(season) %>%
  summarise(n_clouds = sum(clouds))

## # A tibble: 31 x 2
##    season n_clouds
##     <dbl>    <int>
##  1      1        4
##  2      2        7
##  3      3        5
##  4      4        5
##  5      5        6
##  6      6        9
##  7      7       10
##  8      8        7
##  9      9        9
## 10     10        9
## # … with 21 more rows

Now let’s tally the number of the ocean paintings by season.

bob_ross %>%
  group_by(season) #%>%

## # A tibble: 403 x 71
## # Groups:   season [31]
##    episode season episode_num title apple_frame aurora_borealis  barn beach
##    <chr>    <dbl>       <dbl> <chr>       <int>           <int> <int> <int>
##  1 S01E01       1           1 A WA…           0               0     0     0
##  2 S01E02       1           2 MT. …           0               0     0     0
##  3 S01E03       1           3 EBON…           0               0     0     0
##  4 S01E04       1           4 WINT…           0               0     0     0
##  5 S01E05       1           5 QUIE…           0               0     0     0
##  6 S01E06       1           6 WINT…           0               0     0     0
##  7 S01E07       1           7 AUTU…           0               0     0     0
##  8 S01E08       1           8 PEAC…           0               0     0     0
##  9 S01E09       1           9 SEAS…           0               0     0     1
## 10 S01E10       1          10 MOUN…           0               0     0     0
## # … with 393 more rows, and 63 more variables: boat <int>, bridge <int>,
## #   building <int>, bushes <int>, cabin <int>, cactus <int>,
## #   circle_frame <int>, cirrus <int>, cliff <int>, clouds <int>,
## #   conifer <int>, cumulus <int>, deciduous <int>, diane_andre <int>,
## #   dock <int>, double_oval_frame <int>, farm <int>, fence <int>,
## #   fire <int>, florida_frame <int>, flowers <int>, fog <int>,
## #   framed <int>, grass <int>, guest <int>, half_circle_frame <int>,
## #   half_oval_frame <int>, hills <int>, lake <int>, lakes <int>,
## #   lighthouse <int>, mill <int>, moon <int>, mountain <int>,
…
How often were there ocean paintings with clouds?

Let’s create a new variable called ocean_and_clouds.

bob_ross <- bob_ross %>%
  mutate(ocean_and_clouds = case_when(
    ocean == 1 & clouds == 1 ~ TRUE,
    TRUE ~ FALSE)
  )

bob_ross %>%
  group_by(season) %>%
  summarise(n_ocean_and_clouds = sum(ocean_and_clouds))

## # A tibble: 31 x 2
##    season n_ocean_and_clouds
##     <dbl>              <int>
##  1      1                  1
##  2      2                  1
##  3      3                  2
##  4      4                  1
##  5      5                  1
##  6      6                  0
##  7      7                  0
##  8      8                  0
##  9      9                  3
## 10     10                  2
## # … with 21 more rows
…
